<?xml version="1.0" standalone="no"?>
<!DOCTYPE svg PUBLIC "-//W3C//DTD SVG 1.1//EN" "http://www.w3.org/Graphics/SVG/1.1/DTD/svg11.dtd" >
<!--
Copyright (c) 2016, onlinewebfonts.Com
-->
<svg>
<metadata>
Created by FontForge 20120731 at Thu Sep 14 11:00:33 2017
 By www
Copyright (c) 2016, onlinewebfonts.Com
</metadata>
<defs>
<font id="onlinewebfonts" horiz-adv-x="1000" >
  <font-face 
    font-family="onlinewebfonts"
    font-weight="400"
    font-stretch="normal"
    units-per-em="1000"
    panose-1="2 0 5 9 0 0 0 0 0 0"
    ascent="800"
    descent="-200"
    bbox="10 -190.314 990.024 790.314"
    underline-thickness="50"
    underline-position="-100"
    unicode-range="U+E010-E015"
  />
    <missing-glyph />
    <glyph glyph-name="uniE010" unicode="&#xe010;" 
d="M207.92 784.69c3.2998 3.55957 7.87012 5.0791 14.9902 5.06934c17.5195 0 17.7803 -1.01953 19.2998 -38.6094l1.27051 -33.7803l257.279 -0.759766l257.03 -0.510742v32.2607c0 26.4199 0.759766 33.0195 4.32031 36.8301
c5.83984 6.59961 23.8701 6.34961 29.9697 -0.510742c3.80957 -4.06934 7.87988 -5.08008 21.5898 -5.08008c25.4004 0 26.4102 -1.51953 27.4297 -35.2998l1.02051 -28.1895h8.12988c9.65039 0 14.2197 -3.81055 14.2197 -11.6807
c0 -7.86914 -6.59961 -13.71 -15.4893 -13.71h-7.37012v-24.8896c0 -33.5303 -1.78027 -36.0703 -26.1602 -36.0703c-15.5 0 -18.7998 -0.759766 -21.5898 -5.08008c-2.54004 -4.06934 -5.84082 -5.08008 -16.5107 -5.08008c-7.36914 0 -14.7295 1.27051 -16.5098 3.05078
c-2.03027 2.0293 -3.0498 13.7197 -3.0498 35.5596v32.5098h-257.79h-257.8v-32.5098c0 -21.8496 -1.02051 -33.5303 -3.0498 -35.5596c-1.78027 -1.78027 -9.14062 -3.05078 -16.5107 -3.05078c-10.6699 0 -13.71 1.01074 -16 5.08008
c-2.2793 4.32031 -5.33008 5.08008 -21.3301 5.08008c-12.1895 0 -19.5498 1.01074 -21.3291 3.30078c-1.53027 1.7793 -3.31055 15.2393 -3.56055 29.7197l-0.759766 26.6699l-9.91016 1.51953c-10.4102 1.78027 -14.2197 5.34082 -14.2197 13.9707
c0 7.10938 4.31934 10.6592 15.2393 11.6797l8.89062 0.759766l0.759766 27.9404c0.770508 33.2695 1.53027 34.29 25.9102 34.29c13.7197 0 17.7803 1.00977 21.5898 5.08008zM333.13 745.07c11.4297 6.34961 29.21 5.08008 38.3604 -2.54004
c4.30957 -3.56055 7.87012 -7.62012 7.87012 -8.89062c0 -1.26953 -13.21 -2.2793 -29.21 -2.2793c-28.4502 0 -29.21 0.25 -26.6699 5.08008c1.51953 2.79004 5.83984 6.59961 9.64941 8.62988zM635.88 747.36c13.46 4.81934 35.3105 -0.760742 40.6396 -10.9199
c2.54004 -4.83008 1.78027 -5.08008 -26.6699 -5.08008c-16 0 -29.21 1.00977 -29.21 2.0293c0 2.79004 10.4102 12.1904 15.2402 13.9707zM326.78 671.92c-1.01074 3.0498 4.58008 3.56055 34.2998 3.56055h35.8096l3.81055 -13.2109
c2.0293 -7.36914 12.4395 -45.9697 23.1094 -85.8496c10.6709 -39.8701 19.8105 -74.4102 20.5703 -76.7002c1.27051 -4.05957 6.08984 -4.56934 55.6201 -4.56934h54.3496l3.81055 13.46c2.03027 7.10938 12.4395 45.71 23.1094 85.5898
c10.6709 39.8799 19.8105 74.4199 20.5703 76.96c1.27051 3.80957 5.33984 4.32031 36.8301 4.32031c32.7705 0 35.5605 -0.260742 34.29 -4.32031c-0.759766 -2.54004 -19.2998 -70.8604 -41.1396 -151.88l-39.6201 -147.311l-4.32031 -90.6699l-4.07031 -90.6699
l14.4902 -164.58c7.87012 -90.4199 14.4805 -170.93 14.4805 -178.55c0.259766 -17.2803 -5.58008 -27.9404 -18.79 -34.04c-15.4902 -7.36035 -34.04 -2.03027 -43.4307 12.4502c-3.30957 5.08008 -7.11914 38.8594 -17.7793 160.77
c-7.37012 84.8301 -13.7207 156.71 -13.7207 160.011c0 5.33984 -1.01953 5.58984 -19.0498 5.58984c-18.0293 0 -19.0498 -0.260742 -19.0498 -5.58984c0 -8.64062 -25.1504 -299.19 -26.6699 -308.591c-2.03027 -11.4297 -12.4502 -22.8594 -24.1299 -26.4092
c-8.37988 -2.54004 -11.9297 -2.29004 -21.3301 1.26953c-14.2197 5.58008 -21.8398 16.7598 -21.8398 32.25c0 6.09961 6.85938 87.1201 14.7295 180.08l14.7305 168.9l-3.56055 85.0791l-3.55957 85.0801l-40.6396 151.881
c-22.1006 83.5596 -41.1504 153.659 -41.9102 155.689zM478.16 656.43c24.3799 7.88086 56.8896 -1.00977 72.6494 -19.5596c22.3506 -26.4102 22.6006 -65.0205 0.25 -90.1602c-41.3994 -47.2402 -118.609 -19.0498 -119.119 43.4297
c-0.260742 29.7207 19.2998 57.6504 46.2197 66.29z" />
    <glyph glyph-name="uniE011" unicode="&#xe011;" 
d="M353.4 690.4c0 55.0996 42.8994 99.5996 96.3994 99.5996s96.4004 -44.5 96.4004 -99.5996c0 -54.7002 -42.9004 -99.2002 -96.4004 -99.2002s-96.3994 44.5 -96.3994 99.2002zM290.9 -26.2998l73.1992 528.7c3.60059 24.8994 25.7002 42.0996 50.2002 42.0996h51.9004
c24.8994 0 47 -4.5 51.8994 -29.4004c0 0 67.4004 -74.2998 58.4004 -83.2998c57.2002 -64.8994 132.7 -51 132.7 -176c0 -91.7998 -31.7998 -103.7 -89 -119.2l31.3994 -162.899l-120.899 0.399414v-109.8c0 -1.2002 -19.2002 -54.2998 -77.2002 -54.2998
c-26.5996 0 -42.5 24 -42.5 51.4004l1.2002 114.699zM472.2 476c0 0 -25.2998 36.2998 -63.2002 11.4004c-4.09961 -1.60059 -2.90039 -5.7002 -7.40039 -20.8008c-9.39941 -32.6992 -3.69922 -127.399 48.2002 -180.899c69 -67.7998 133.9 -59.2002 153.9 -54.7002
c15.0996 3.59961 33.3994 12.5996 31.7998 36.2998c1.7002 23.2998 -19.2002 39.6006 -26.0996 39.2002c-22.5 -1.2002 -73.9004 7.2998 -107.801 39.5996c-44.5 42.1006 -29.3994 129.9 -29.3994 129.9z" />
    <glyph glyph-name="uniE012" unicode="&#xe012;" 
d="M376.7 676.3c9.39941 8.5 23.2998 8.5 32.0996 0c8.7998 -8.7998 8.7998 -23 0 -32.0996c-11.5 -11.7998 -17.3994 -27.5 -17.3994 -43.2998c0 -15.5 5.89941 -31 17.3994 -43.1006c20.6006 -21.0996 31 -47.7998 31 -75.0996s-10.3994 -54.5 -31 -75.4004
c-8.7998 -8.5 -22.7002 -8.5 -32.0996 0c-8.5 9.10059 -8.5 23.2998 0 32.1006v0c11.7998 11.7998 17.8994 27.7998 17.8994 43.2998s-6.19922 31.2998 -17.8994 43.0996c-20.2998 20.6006 -30.7002 47.7998 -30.7002 75.1006c0 27.1992 10.4004 54.5 30.7002 75.3994v0z
M990 306.3v0v-1.09961c-0.299805 -268.4 -221.9 -488.9 -490 -488.9c-268.9 0 -490 221.101 -490 490c0 20.6006 16.7998 37.4004 37.7002 37.4004h0.799805h903.5c20.9004 0 38 -16.7998 38 -37.4004v0zM868.6 117.5v0h-737.8c70.6006 -136.3 213.3 -225.8 369.2 -225.8
c155.6 0 298.6 89.5 368.6 225.8v0zM888.7 162.7v0c12.5996 33.3994 20.5996 69 24.0996 106.1h-825.8c3.5 -37.2002 11.5 -72.7002 24.0996 -106.1h777.601v0zM483.7 745.2v0c-8.2998 8.59961 -8.2998 23.5 0 32.0996c9.2998 8.60059 23.2002 8.60059 32.0996 0
l1.2998 -1.2998c19.8008 -20.5996 29.9004 -47.2998 29.9004 -74c0 -27 -10.4004 -54.2998 -31.2998 -74.7998v0l-0.700195 -1.2002c-11.5 -11.2002 -16.7998 -26.7002 -16.7998 -42.2002c0 -16 5.89941 -31.2998 17.7002 -43.0996
c8.7998 -8.7998 8.7998 -23.2002 0 -32.1006c-8.80078 -8.7998 -22.7002 -8.7998 -32.1006 0c-20.2002 20.6006 -30.7998 48.4004 -30.7998 75.2002c0 26.5 10.2002 53.2002 29.9004 73.7998l0.799805 1.10059v0.5h0.200195
c11.7998 11.2002 17.6992 27.2998 17.6992 42.7998s-5.59961 30.7002 -16.7998 42.2002l-1.09961 1v0zM590.9 676.3v0c8.7998 8.5 23.1992 8.5 32.0996 0c8.7998 -8.7998 8.7998 -23 0 -32.0996c-11.7998 -11.7998 -17.9004 -27.5 -17.9004 -43.2998
c0 -15.5 6.2002 -31 17.9004 -43.1006v0l1.09961 -1.2998c20 -20.9004 29.9004 -47.2998 29.9004 -73.7998c0 -27.2998 -10.4004 -54.5 -31 -75.4004c-9.09961 -8.5 -23.2998 -8.5 -32.0996 0c-8.80078 9.10059 -8.80078 23.5 0.5 32.1006
c11.1992 11.7998 17.6992 27.7998 17.6992 43.2998c0 15 -5.89941 30.5 -16.7998 42.2002l-1.2998 0.799805c-20.2998 20.5996 -31 47.7998 -31 75.0996s10.7002 54.5 31 75.1006v0.399414h-0.0996094z" />
    <glyph glyph-name="uniE013" unicode="&#xe013;" 
d="M468.19 789.79c15.5596 1.63965 77.3799 -0.820312 98.0498 -3.88965c110.12 -16.1699 206.33 -64.0703 281.67 -140.21c77.5801 -78.6006 124.859 -176.44 139.6 -288.61c4.10059 -31.1104 3.07031 -94.1602 -2.25 -127.93
c-16.1699 -107.25 -64.2695 -202.641 -139.6 -277.351c-77.79 -77.3799 -176.04 -124.859 -288.41 -139.6c-31.1104 -4.10059 -94.1602 -3.07031 -127.93 2.25c-163.34 24.7695 -297.62 122.609 -369.67 269.37c-24.3604 49.9492 -39.5107 100.1 -47.0801 156.59
c-3.28027 24.9697 -3.48047 91.4902 -0.209961 116.67c22.3096 170.09 120.76 308.87 271.609 382.97c58.75 28.8604 108.69 42.1699 184.221 49.7402zM567.47 722.65c-18.6299 3.06934 -95.3896 5.72949 -109.5 3.68945
c-90.8896 -13.0996 -149.63 -36.2295 -215.54 -85.1494c-24.7695 -18.2207 -66.9395 -60.1807 -84.9492 -84.54c-37.4609 -50.7607 -63.25 -107.46 -75.9404 -166.82c-16.9902 -80.2402 -10.4404 -167.44 18.2197 -241.53c58.1299 -150.24 189.33 -253 348.98 -273.26
c32.9502 -4.2998 90.4697 -3.27051 119.74 2.0498c72.46 13.0898 132.029 38.6797 189.34 81.46c24.3594 18.0098 66.5195 60.1807 84.3301 83.9199c46.6699 62.8398 75.1191 135.91 83.7197 214.101c3.07031 28.6602 1.43945 85.9697 -3.27051 111.76
c-15.96 88.2197 -53.6191 163.75 -112.369 225.57c-65.7109 68.9795 -147.58 112.369 -242.761 128.75zM492.55 664.11c6.5498 2.87012 16.1699 0.609375 21.29 -5.33008c4.5 -5.12012 4.5 -5.73047 4.5 -70.4102v-65.29l-4.91016 -5.73047
c-3.88965 -4.5 -6.5498 -5.72949 -13.5098 -5.72949s-9.62012 1.22949 -13.5098 5.72949l-4.91016 5.73047v64.8896c0 70 0.200195 71.6406 11.0498 76.1406zM380.59 643.64c7.37012 5.73047 19.0303 5.32031 24.9805 -0.819336
c2.85938 -3.07031 11.25 -25.5898 23.7393 -64.4805c18.8301 -57.5098 19.4502 -59.9697 16.5801 -66.5195c-3.47949 -8.18066 -8.59961 -11.46 -18.2197 -11.46c-12.0801 0 -14.7402 5.12012 -35.4102 69.3896c-20.4697 63.4502 -21.0898 66.5195 -11.6699 73.8896z
M594.28 642.82c8.7998 9.41992 28.25 4.2998 31.3193 -8.39062c1.84082 -7.16992 -35.6094 -122.399 -41.96 -129.16c-3.06934 -3.26953 -6.75 -4.90918 -11.46 -4.90918c-9.62012 0 -14.7393 3.26953 -18.2197 11.46c-2.87012 6.5498 -2.25 9 16.5801 66.5195
c12.4795 38.8906 20.8799 61.4102 23.7402 64.4805zM282.13 592.26c4.2998 5.12012 6.75977 6.35059 13.5 6.36035c10.8506 0 12.6904 -2.0498 54.4502 -59.7705c23.1299 -32.3496 33.1602 -47.8994 33.1602 -51.79c0 -6.14941 -3.27051 -13.3096 -7.98047 -16.79
c-4.91016 -3.68945 -17.5996 -3.2793 -22.3096 1.02051c-2.25 1.83984 -20.2705 26 -40.1201 53.2197c-39.0898 54.2402 -40.1201 56.4902 -30.7002 67.75zM693.97 596.36c6.95996 4.08984 16.7803 2.4502 23.1299 -3.69043
c10.6406 -10.8496 9.62012 -13.0996 -30.0898 -68.1602c-19.8496 -27.2197 -37.8701 -51.3799 -40.1201 -53.2197c-2.44922 -2.04004 -7.37012 -3.67969 -11.8701 -3.67969c-14.1191 0 -22.7197 14.5293 -16.1699 27.2197c4.91016 9.00977 71.6406 99.6895 75.1201 101.53z
M207.42 517.55c11.2598 9.41992 13.5098 8.40039 67.7402 -30.71c27.2197 -19.8496 51.3701 -37.8701 53.4199 -40.1201c4.08984 -4.70996 4.5 -17.3994 0.820312 -22.3096c-3.68066 -4.70996 -10.6406 -7.98047 -17.1904 -7.98047
c-4.09961 0 -19.04 9.82031 -54.8604 35.8203c-27.0098 19.6504 -50.7598 37.6602 -52.5996 40.1201c-2.04004 2.45996 -3.67969 7.78027 -3.67969 12.0801c0 6.13965 1.22949 9.00977 6.34961 13.0996zM724.67 486.85c55.0605 39.71 57.3105 40.7305 68.1602 30.0908
c6.34961 -6.35059 7.78027 -15.3506 3.88965 -22.7207c-1.83984 -3.47949 -91.7002 -70.21 -101.729 -75.5293c-12.6904 -6.55078 -27.2207 2.0498 -27.2207 16.1699c0 4.5 1.63086 9.40918 3.68066 11.8701c1.83984 2.25 26 20.2695 53.2197 40.1191zM490.91 371
c3.47949 5.32031 13.3096 6.13965 17.3994 1.21973c1.44043 -1.83984 11.6709 -45.2295 22.5205 -96.2002c19.2402 -89.6494 20.0596 -93.1299 25.79 -97.4297c19.0303 -14.5303 33.7695 -39.29 37.6602 -63.04c4.2998 -26.3994 -4.91016 -56.4902 -23.7402 -77.3701
c-45.0303 -50.1494 -128.55 -38.0693 -156.59 22.7207c-19.4502 41.7598 -7.57031 89.4492 29.2695 117.489c5.53027 4.30078 6.5498 8.18066 25.3799 96.2002c10.6406 50.3604 20.6699 93.75 22.3105 96.4102z" />
    <glyph glyph-name="uniE014" unicode="&#xe014;" 
d="M703.1 174.3c4.5 -23 -1.39941 -34.7002 -80.0996 -117.2c-35.5 -37.1992 -71.7002 -73.5 -72.0996 -73.8994c-7.80078 -7.7998 -18 -11.7002 -28.2002 -11.7002c-10.1006 0 -20.2998 3.7998 -28.1006 11.5996c-0.5 0.600586 -1 1.10059 -1.5 1.7002v-134.8
c0 -22.0996 -17.7998 -39.9004 -39.7998 -39.9004c-22.0996 -0.0996094 -39.8994 17.8008 -39.8994 39.8008v323c0 1.7998 0.199219 3.59961 0.399414 5.2998c-3.09961 7.7998 -4.89941 16.2002 -4.89941 25.2998v58.7998h0.0996094v132.7
c0 2.40039 0.200195 4.7998 0.5 7.09961l-6.7002 2.40039c-53.5 25.4004 -105.399 57.9004 -107.2 151.8c-1.2998 68.7998 57.8008 118.601 105.301 158.601c13.8994 11.6992 39.1992 33 43.5996 41.3994c1.5 19 17.2002 33.7002 36.4004 33.7002
c6.2998 0 12.2998 -1.59961 17.7998 -4.7002c5.5 3.10059 11.5 4.7002 17.7998 4.7002c19.2002 0 34.9004 -14.7002 36.4004 -33.7002c4.39941 -8.39941 29.6992 -29.7998 43.5 -41.3994c47.5996 -40 106.699 -89.8008 105.399 -158.601
c-1.7998 -93.2998 -66.2998 -135.1 -114.6 -158.5l-0.200195 -0.0996094c0 -0.900391 0.200195 -1.7998 0.200195 -2.7002l-0.299805 -146.7v0v-37.2002c65.2998 2.40039 108.399 3.10059 116.199 -36.7998zM368.8 557.7c1.10059 -57.7002 25.5 -69.2998 84.4004 -95.7998
c7.59961 4 15.7002 7.09961 23.8994 9.09961h0.200195l21 -22.0996l21.7002 21.7998c8.59961 -2.10059 25.7998 -8.40039 25.7998 -8.40039l4.2002 1.90039c55.4004 25.2002 77.9004 37.7002 79 93.5c0.700195 33.8994 -43.7002 71.2998 -79.2998 101.3
c-19.5 16.4004 -38 32 -50.7998 48c-12.9004 -16 -31.3008 -31.5996 -50.7002 -48c-35.7002 -30 -80 -67.2998 -79.4004 -101.3zM494.8 39.5c30.1006 30.2002 63 64.0996 88.7002 91.7998c-23.9004 -0.899414 -50.9004 -2.5 -75.4004 -4.2998
c-2 -0.200195 -4 -0.0996094 -6 0c-1.2998 -0.0996094 -2.69922 -0.200195 -4 -0.200195c-1.69922 0 -3.19922 0.100586 -4.7998 0.200195v-89.0996c0.5 0.5 1 1.09961 1.5 1.59961zM498.3 649.7c48 0 87 -38.9004 87 -87c0 -48 -38.8994 -87 -87 -87
c-48 0 -87 38.8994 -87 87c0 48 38.9004 87 87 87z" />
    <glyph glyph-name="uniE015" unicode="&#xe015;" 
d="M507.4 790c60.5996 0 109.8 -49.0996 109.8 -109.8c0 -60.6006 -49.2002 -109.8 -109.8 -109.8c-60.6006 0 -109.801 49.0996 -109.801 109.8s49.2002 109.8 109.801 109.8zM833.3 557.8c23.6006 -0.0996094 42.6006 -19.2002 42.4004 -42.5996
c-0.100586 -23.5 -19.1006 -42.5 -42.6006 -42.5h-0.0996094l-226.2 0.700195l2.10059 -235.301c0.0996094 -7.39941 -1 -14.3994 -2.80078 -21c0.100586 -1.39941 0.200195 -2.69922 0.200195 -4.09961l0.100586 -352.4c0 -27.7998 -22.6006 -50.3994 -50.4004 -50.3994v0
c-27.7998 0 -50.4004 22.5 -50.4004 50.2998l-0.0996094 291.5c-8.7998 0.200195 -17.7002 1.40039 -26.2998 3.59961l-213.101 -304.8c-9.7998 -14 -25.3994 -21.5 -41.2998 -21.5c-9.89941 0 -20 2.90039 -28.7998 9.10059
c-22.7998 15.8994 -28.2998 47.2998 -12.4004 70.0996l224.5 320.8c-0.199219 2.2998 -0.5 4.5 -0.5 6.90039l-2 233.6l-238.6 -0.599609h-0.0996094c-23.5 0 -42.5 19 -42.6006 42.5c-0.0996094 23.5 19 42.5996 42.5 42.7002l291.8 0.699219
c7.30078 3.60059 14.9004 6.40039 22.4004 8.30078h0.299805l24.7998 -20.3008l23.9004 20.6006c5.2002 -1.2998 10.5996 -3 15.7998 -5.10059z" />
  </font>
</defs></svg>
